<svg id="gears" xmlns="http://www.w3.org/2000/svg" width="39.001" height="39.001" viewBox="0 0 39.001 39.001">
  <g id="Group_651" data-name="Group 651">
    <g id="Group_650" data-name="Group 650">
      <path id="Path_3319" data-name="Path 3319" d="M20.017,24.163a.616.616,0,0,0-.82-.292,9.805,9.805,0,0,1-1.558.583.615.615,0,0,0-.438.472l-.651,3.257a.692.692,0,0,1-.677.555H14.1a.692.692,0,0,1-.677-.555l-.651-3.257a.616.616,0,0,0-.438-.472,9.784,9.784,0,0,1-2.163-.9.616.616,0,0,0-.644.024L6.759,25.424a.693.693,0,0,1-.871-.086L4.631,24.081a.692.692,0,0,1-.086-.871l1.843-2.764a.616.616,0,0,0,.024-.644,9.781,9.781,0,0,1-.9-2.163.615.615,0,0,0-.472-.438L1.786,16.55a.692.692,0,0,1-.555-.677V14.1a.692.692,0,0,1,.555-.677l3.257-.651a.616.616,0,0,0,.472-.438,9.784,9.784,0,0,1,.9-2.163.616.616,0,0,0-.024-.644L4.545,6.759a.692.692,0,0,1,.086-.871L5.888,4.631a.693.693,0,0,1,.871-.086L9.523,6.388a.616.616,0,0,0,.644.024,9.784,9.784,0,0,1,2.163-.9.615.615,0,0,0,.438-.472l.651-3.257a.692.692,0,0,1,.677-.555h1.777a.692.692,0,0,1,.677.555L17.2,5.043a.616.616,0,0,0,.438.472,9.784,9.784,0,0,1,2.163.9.616.616,0,0,0,.644-.024L23.21,4.545a.693.693,0,0,1,.871.086l1.257,1.257a.692.692,0,0,1,.086.871L23.582,9.523a.616.616,0,0,0-.024.644,9.784,9.784,0,0,1,.9,2.163.615.615,0,0,0,.472.438l3.257.651a.692.692,0,0,1,.555.677v1.777a.692.692,0,0,1-.555.677l-3.257.651a.616.616,0,0,0-.472.438,9.8,9.8,0,0,1-.6,1.595.616.616,0,1,0,1.11.533,11.045,11.045,0,0,0,.567-1.43l2.894-.579a1.927,1.927,0,0,0,1.545-1.885V14.1a1.927,1.927,0,0,0-1.545-1.885l-2.894-.579A11.019,11.019,0,0,0,24.811,9.9l1.637-2.456a1.927,1.927,0,0,0-.24-2.425L24.952,3.76a1.927,1.927,0,0,0-2.425-.24L20.071,5.157a11.027,11.027,0,0,0-1.734-.719l-.579-2.894A1.927,1.927,0,0,0,15.873,0H14.1a1.927,1.927,0,0,0-1.885,1.545l-.579,2.894A11.019,11.019,0,0,0,9.9,5.158L7.442,3.52a1.927,1.927,0,0,0-2.425.24L3.761,5.017a1.927,1.927,0,0,0-.24,2.425L5.158,9.9a11.024,11.024,0,0,0-.719,1.734l-2.894.579A1.927,1.927,0,0,0,0,14.1v1.777a1.927,1.927,0,0,0,1.545,1.885l2.894.579a11.018,11.018,0,0,0,.719,1.734L3.52,22.527a1.927,1.927,0,0,0,.24,2.425l1.257,1.257a1.927,1.927,0,0,0,2.425.24L9.9,24.812a11.023,11.023,0,0,0,1.734.719l.579,2.894A1.927,1.927,0,0,0,14.1,29.969h1.777a1.927,1.927,0,0,0,1.885-1.545l.579-2.894a11.032,11.032,0,0,0,1.388-.547A.616.616,0,0,0,20.017,24.163Z" fill="#727272"/>
      <path id="Path_3320" data-name="Path 3320" d="M141.2,116.188a.615.615,0,0,0,.829-.267,6.923,6.923,0,0,0-10.995-8.111.616.616,0,1,0,.86.882,5.692,5.692,0,0,1,9.039,6.668A.616.616,0,0,0,141.2,116.188Z" transform="translate(-120.877 -97.781)" fill="#727272"/>
      <path id="Path_3321" data-name="Path 3321" d="M107,161.716a.616.616,0,0,0-.783.382,6.924,6.924,0,0,0,10.6,7.863.616.616,0,1,0-.722-1,5.693,5.693,0,0,1-8.716-6.465A.616.616,0,0,0,107,161.716Z" transform="translate(-97.782 -149.367)" fill="#727272"/>
      <path id="Path_3322" data-name="Path 3322" d="M266.846,255.946l-1.781-.356a7.453,7.453,0,0,0-.391-.943l1.007-1.511a1.478,1.478,0,0,0-.184-1.86l-.826-.826a1.478,1.478,0,0,0-1.86-.184l-1.511,1.007a7.437,7.437,0,0,0-.943-.39L260,249.1a1.478,1.478,0,0,0-1.446-1.185h-1.168a1.478,1.478,0,0,0-1.446,1.185l-.356,1.781a7.46,7.46,0,0,0-.942.39l-1.511-1.007a1.478,1.478,0,0,0-1.86.184l-.826.826a1.478,1.478,0,0,0-.184,1.86l1.007,1.511a7.443,7.443,0,0,0-.5,1.308.616.616,0,1,0,1.186.332,6.215,6.215,0,0,1,.569-1.374.616.616,0,0,0-.024-.644l-1.211-1.816a.243.243,0,0,1,.03-.306l.826-.826a.244.244,0,0,1,.306-.03l1.816,1.211a.616.616,0,0,0,.644.024,6.214,6.214,0,0,1,1.374-.569.615.615,0,0,0,.438-.472l.428-2.14a.243.243,0,0,1,.238-.2h1.168a.243.243,0,0,1,.238.2l.428,2.14a.616.616,0,0,0,.438.472,6.213,6.213,0,0,1,1.374.569.616.616,0,0,0,.644-.024l1.816-1.211a.243.243,0,0,1,.306.03l.826.826a.243.243,0,0,1,.03.306l-1.211,1.816a.616.616,0,0,0-.024.644,6.215,6.215,0,0,1,.569,1.374.616.616,0,0,0,.472.438l2.14.428a.243.243,0,0,1,.2.238v1.168a.243.243,0,0,1-.2.238l-2.14.428a.616.616,0,0,0-.472.438,6.214,6.214,0,0,1-.569,1.374.616.616,0,0,0,.024.644l1.211,1.816a.243.243,0,0,1-.03.306l-.826.826a.243.243,0,0,1-.306.03l-1.816-1.211a.616.616,0,0,0-.644-.024,6.214,6.214,0,0,1-1.374.57.616.616,0,0,0-.438.472l-.428,2.14a.243.243,0,0,1-.238.2h-1.168a.243.243,0,0,1-.238-.2l-.428-2.14a.616.616,0,0,0-.438-.472,6.214,6.214,0,0,1-1.374-.569.616.616,0,0,0-.644.024l-1.816,1.211a.243.243,0,0,1-.306-.03l-.826-.826a.243.243,0,0,1-.03-.306l1.211-1.816a.616.616,0,0,0,.024-.644,6.216,6.216,0,0,1-.569-1.374.615.615,0,0,0-.472-.438l-2.14-.428a.243.243,0,0,1-.2-.238v-1.168a.243.243,0,0,1,.2-.238l.131-.026a.616.616,0,1,0-.242-1.208l-.131.026a1.478,1.478,0,0,0-1.185,1.446v1.168A1.478,1.478,0,0,0,249.1,260l1.781.356a7.46,7.46,0,0,0,.39.943l-1.007,1.511a1.478,1.478,0,0,0,.184,1.86l.826.826a1.478,1.478,0,0,0,1.86.184l1.511-1.007a7.442,7.442,0,0,0,.943.39l.356,1.781a1.478,1.478,0,0,0,1.446,1.185h1.168A1.478,1.478,0,0,0,260,266.848l.356-1.781a7.445,7.445,0,0,0,.942-.391l1.511,1.007a1.478,1.478,0,0,0,1.86-.184l.826-.826a1.478,1.478,0,0,0,.184-1.86l-1.007-1.511a7.432,7.432,0,0,0,.39-.943l1.781-.356a1.478,1.478,0,0,0,1.185-1.446v-1.168A1.478,1.478,0,0,0,266.846,255.946Z" transform="translate(-229.03 -229.032)" fill="#727272"/>
      <path id="Path_3323" data-name="Path 3323" d="M338.134,335.918a2.219,2.219,0,0,1,2.217,2.217.616.616,0,0,0,1.232,0,3.449,3.449,0,1,0-3.449,3.449,3.416,3.416,0,0,0,2.107-.718.616.616,0,1,0-.753-.975,2.2,2.2,0,0,1-1.354.461,2.217,2.217,0,1,1,0-4.434Z" transform="translate(-309.191 -309.192)" fill="#727272"/>
      <path id="Path_3324" data-name="Path 3324" d="M154.967,151.215a3.752,3.752,0,1,0-3.752,3.752A3.756,3.756,0,0,0,154.967,151.215Zm-6.272,0a2.52,2.52,0,1,1,2.52,2.52A2.523,2.523,0,0,1,148.695,151.215Z" transform="translate(-136.23 -136.23)" fill="#727272"/>
    </g>
  </g>
</svg>
