<svg xmlns="http://www.w3.org/2000/svg" width="11.234" height="11.982" viewBox="0 0 11.234 11.982">
  <g id="download" transform="translate(-16)">
    <g id="Group_1689" data-name="Group 1689" transform="translate(18.621)">
      <g id="Group_1688" data-name="Group 1688">
        <path id="Path_5010" data-name="Path 5010" d="M133.956,5.462a.373.373,0,0,0-.341-.219h-1.5V.374A.375.375,0,0,0,131.743,0h-1.5a.375.375,0,0,0-.374.374V5.242h-1.5a.374.374,0,0,0-.282.621l2.621,3a.374.374,0,0,0,.563,0l2.621-3A.373.373,0,0,0,133.956,5.462Z" transform="translate(-127.998)" fill="#fff"/>
      </g>
    </g>
    <g id="Group_1691" data-name="Group 1691" transform="translate(16 8.238)">
      <g id="Group_1690" data-name="Group 1690">
        <path id="Path_5011" data-name="Path 5011" d="M25.736,352v2.247H17.5V352H16v3a.749.749,0,0,0,.749.749h9.736a.748.748,0,0,0,.749-.749v-3Z" transform="translate(-16 -352)" fill="#fff"/>
      </g>
    </g>
  </g>
</svg>
