<svg xmlns="http://www.w3.org/2000/svg" width="16.37" height="15.005" viewBox="0 0 16.37 15.005">
  <g id="Group_1737" data-name="Group 1737" transform="translate(0 -0.008)">
    <path id="Path_3748" data-name="Path 3748" d="M7.5,15.013A7.5,7.5,0,1,1,11.55,1.194.512.512,0,0,1,11,2.055a6.479,6.479,0,1,0,2.985,5.455c0-.214-.01-.425-.03-.633a.512.512,0,1,1,1.018-.1q.035.361.035.732A7.511,7.511,0,0,1,7.5,15.013Zm0,0" fill="#6bc403"/>
    <path id="Path_3749" data-name="Path 3749" d="M152.92,29.873a.508.508,0,0,1-.361-.15l-3.069-3.069a.512.512,0,1,1,.724-.724l2.708,2.708,7.14-7.141a.512.512,0,0,1,.724.724l-7.5,7.5A.512.512,0,0,1,152.92,29.873Zm0,0" transform="translate(-144.565 -20.658)" fill="#6bc403"/>
  </g>
</svg>
