<svg id="analytics_3_" data-name="analytics (3)" xmlns="http://www.w3.org/2000/svg" width="20.5" height="20.5" viewBox="0 0 20.5 20.5">
  <g id="Group_143" data-name="Group 143" transform="translate(0 19.646)">
    <g id="Group_142" data-name="Group 142">
      <path id="Path_2692" data-name="Path 2692" d="M20.073,490.667H.427a.427.427,0,1,0,0,.854H20.073a.427.427,0,1,0,0-.854Z" transform="translate(0 -490.667)" fill="#a2a2a2"/>
    </g>
  </g>
  <g id="Group_145" data-name="Group 145" transform="translate(0.854 14.521)">
    <g id="Group_144" data-name="Group 144">
      <path id="Path_2693" data-name="Path 2693" d="M24.323,362.667H21.76a.427.427,0,0,0-.427.427v5.125a.427.427,0,0,0,.427.427h2.562a.427.427,0,0,0,.427-.427v-5.125A.427.427,0,0,0,24.323,362.667Zm-.427,5.125H22.187v-4.271H23.9v4.271Z" transform="translate(-21.333 -362.667)" fill="#a2a2a2"/>
    </g>
  </g>
  <g id="Group_147" data-name="Group 147" transform="translate(5.979 10.25)">
    <g id="Group_146" data-name="Group 146">
      <path id="Path_2694" data-name="Path 2694" d="M152.323,256H149.76a.427.427,0,0,0-.427.427v9.4a.427.427,0,0,0,.427.427h2.563a.427.427,0,0,0,.427-.427v-9.4A.427.427,0,0,0,152.323,256Zm-.427,9.4h-1.708v-8.542H151.9Z" transform="translate(-149.333 -256)" fill="#a2a2a2"/>
    </g>
  </g>
  <g id="Group_149" data-name="Group 149" transform="translate(11.104 11.958)">
    <g id="Group_148" data-name="Group 148">
      <path id="Path_2695" data-name="Path 2695" d="M280.323,298.667H277.76a.427.427,0,0,0-.427.427v7.687a.427.427,0,0,0,.427.427h2.563a.427.427,0,0,0,.427-.427v-7.687A.427.427,0,0,0,280.323,298.667Zm-.427,7.688h-1.708v-6.833H279.9Z" transform="translate(-277.333 -298.667)" fill="#a2a2a2"/>
    </g>
  </g>
  <g id="Group_151" data-name="Group 151" transform="translate(16.229 6.833)">
    <g id="Group_150" data-name="Group 150">
      <path id="Path_2696" data-name="Path 2696" d="M408.323,170.667H405.76a.427.427,0,0,0-.427.427v12.812a.427.427,0,0,0,.427.427h2.563a.427.427,0,0,0,.427-.427V171.094A.427.427,0,0,0,408.323,170.667Zm-.427,12.812h-1.708V171.521H407.9Z" transform="translate(-405.333 -170.667)" fill="#a2a2a2"/>
    </g>
  </g>
  <g id="Group_153" data-name="Group 153" transform="translate(0.854 7.687)">
    <g id="Group_152" data-name="Group 152">
      <path id="Path_2697" data-name="Path 2697" d="M23.041,192a1.708,1.708,0,1,0,1.708,1.708A1.71,1.71,0,0,0,23.041,192Zm0,2.563a.854.854,0,1,1,.854-.854A.855.855,0,0,1,23.041,194.563Z" transform="translate(-21.333 -192)" fill="#a2a2a2"/>
    </g>
  </g>
  <g id="Group_155" data-name="Group 155" transform="translate(5.979 3.417)">
    <g id="Group_154" data-name="Group 154">
      <path id="Path_2698" data-name="Path 2698" d="M151.041,85.333a1.708,1.708,0,1,0,1.708,1.708A1.71,1.71,0,0,0,151.041,85.333Zm0,2.563a.854.854,0,1,1,.854-.854A.855.855,0,0,1,151.041,87.9Z" transform="translate(-149.333 -85.333)" fill="#a2a2a2"/>
    </g>
  </g>
  <g id="Group_157" data-name="Group 157" transform="translate(11.104 5.125)">
    <g id="Group_156" data-name="Group 156">
      <path id="Path_2699" data-name="Path 2699" d="M279.041,128a1.708,1.708,0,1,0,1.708,1.708A1.71,1.71,0,0,0,279.041,128Zm0,2.563a.854.854,0,1,1,.854-.854A.855.855,0,0,1,279.041,130.563Z" transform="translate(-277.333 -128)" fill="#a2a2a2"/>
    </g>
  </g>
  <g id="Group_159" data-name="Group 159" transform="translate(16.229)">
    <g id="Group_158" data-name="Group 158">
      <path id="Path_2700" data-name="Path 2700" d="M407.041,0a1.708,1.708,0,1,0,1.708,1.708A1.71,1.71,0,0,0,407.041,0Zm0,2.562a.854.854,0,1,1,.854-.854A.855.855,0,0,1,407.041,2.562Z" transform="translate(-405.333)" fill="#a2a2a2"/>
    </g>
  </g>
  <g id="Group_161" data-name="Group 161" transform="translate(13.291 2.186)">
    <g id="Group_160" data-name="Group 160">
      <path id="Path_2701" data-name="Path 2701" d="M336.006,54.733a.427.427,0,0,0-.6,0l-3.314,3.314a.427.427,0,0,0,.6.6l3.314-3.314A.427.427,0,0,0,336.006,54.733Z" transform="translate(-331.963 -54.608)" fill="#a2a2a2"/>
    </g>
  </g>
  <g id="Group_163" data-name="Group 163" transform="translate(8.493 5.048)">
    <g id="Group_162" data-name="Group 162">
      <path id="Path_2702" data-name="Path 2702" d="M215.4,126.877l-2.744-.782a.427.427,0,0,0-.234.822l2.744.782a.427.427,0,0,0,.234-.822Z" transform="translate(-212.108 -126.078)" fill="#a2a2a2"/>
    </g>
  </g>
  <g id="Group_165" data-name="Group 165" transform="translate(3.04 5.496)">
    <g id="Group_164" data-name="Group 164">
      <path id="Path_2703" data-name="Path 2703" d="M79.916,137.434a.427.427,0,0,0-.6-.068l-3.22,2.568a.427.427,0,0,0,.266.761.431.431,0,0,0,.266-.092l3.22-2.568A.427.427,0,0,0,79.916,137.434Z" transform="translate(-75.935 -137.273)" fill="#a2a2a2"/>
    </g>
  </g>
</svg>
